…
    ## Warning: There was 1 warning in `mutate()`.
    ## ℹ In argument: `log_product = log(tmin * prcp)`.
    ## Caused by warning in `log()`:
    ## ! NaNs produced

``` r
results 
```

    ## # A tibble: 5,000 × 6
    ##    strap_number r_square `(Intercept)`  tmin       prcp log_product
    ##           <int>    <dbl>         <dbl> <dbl>      <dbl>       <dbl>
    ##  1            1    0.907          8.00 1.01   0.00379         -5.57
    ##  2            2    0.911          8.08 1.00  -0.000923       NaN   
    ##  3            3    0.927          8.14 1.00   0.000507        -7.58
    ##  4            4    0.936          8.30 1.02  -0.00513        NaN   
    ##  5            5    0.895          8.42 0.991 -0.000224       NaN   
    ##  6            6    0.917          8.01 1.02  -0.00807        NaN   
    ##  7            7    0.923          7.83 1.01   0.0000520       -9.85
    ##  8            8    0.915          7.80 1.02   0.00138         -6.57
    ##  9            9    0.944          7.78 1.04  -0.00437        NaN   
    ## 10           10    0.906          8.63 1.00  -0.00317        NaN   
    ## # ℹ 4,990 more rows
…
